[gd_scene load_steps=2 format=2]

[ext_resource path="res://scenes/level/Gate.gd" type="Script" id=1]

[node name="Gate" type="Node2D"]
script = ExtResource( 1 )

[node name="Area2D" type="Area2D" parent="."]

[node name="CollisionShape2D" type="CollisionShape2D" parent="Area2D"]

[node name="Sprite" type="Sprite" parent="."]
region_enabled = true
[connection signal="area_entered" from="Area2D" to="." method="_on_Area2D_area_entered"]
