[gd_scene load_steps=3 format=2]

[ext_resource path="res://tools/TilesetMaker.gd" type="Script" id=1]
[ext_resource path="res://assets/world/roguelike-pack/Spritesheet/roguelikeSheet_transparent.png" type="Texture" id=2]

[node name="TilesetMaker" type="Node2D"]
script = ExtResource( 1 )
tileSize = Vector2( 16, 16 )
spacing = Vector2( 1, 1 )
outputFile = "assets/world/roguelike-pack"

[node name="Sprite" type="Sprite" parent="."]
position = Vector2( 278.639, 189.644 )
texture = ExtResource( 2 )
region_rect = Rect2( 16, 16, 16, 16 )
