[gd_scene load_steps=6 format=2]

[ext_resource path="res://assets/enemies/airplane1.png" type="Texture" id=1]
[ext_resource path="res://scenes/actors/enemies/Enemy.tscn" type="PackedScene" id=2]

[sub_resource type="RectangleShape2D" id=1]

[sub_resource type="CircleShape2D" id=2]
radius = 110.093

[sub_resource type="CircleShape2D" id=3]
radius = 21.7837

[node name="TestEnemy" instance=ExtResource( 2 )]
position = Vector2( 0.280624, 0 )
movement_speed = 50

[node name="Body" parent="." index="0"]
scale = Vector2( 0.197126, 0.168156 )
texture = ExtResource( 1 )

[node name="Shape" parent="." index="1"]
shape = SubResource( 1 )

[node name="Range" parent="View" index="0"]
shape = SubResource( 2 )

[node name="CollisionShape2D" parent="Attack" index="0"]
shape = SubResource( 3 )

[node name="HealthBar" parent="." index="6"]
margin_left = -10.3298
margin_top = -15.8919
margin_right = 9.6702
margin_bottom = -10.8919
rect_min_size = Vector2( 20, 5 )
