[gd_scene load_steps=7 format=2]

[ext_resource path="res://assets/towers/tower-defense-top-down/base1.png" type="Texture" id=1]
[ext_resource path="res://scenes/actors/base/Base.tscn" type="PackedScene" id=2]
[ext_resource path="res://scenes/actors/base/TestTurretPlatform.tscn" type="PackedScene" id=3]
[ext_resource path="res://assets/world/light/light.png" type="Texture" id=4]

[sub_resource type="RectangleShape2D" id=1]
extents = Vector2( 14.9553, 12.7825 )

[sub_resource type="RectangleShape2D" id=2]
extents = Vector2( 14.4259, 13.0897 )

[node name="TestBase" instance=ExtResource( 2 )]
position = Vector2( 0, 0.396851 )
collision_mask = 16
movement_speed = 150
rotationSpeed = 4.0

[node name="EnvironmentCollision" parent="." index="0"]
shape = SubResource( 1 )

[node name="Sprite" parent="." index="1"]
position = Vector2( -0.186394, 0.536367 )
scale = Vector2( 0.323759, 0.383934 )
texture = ExtResource( 1 )

[node name="TestTurretPlatform" parent="." index="3" instance=ExtResource( 3 )]
position = Vector2( 7.62939e-06, 0.630672 )

[node name="CollisionShape2D" parent="InteractionRadius" index="0"]
shape = SubResource( 2 )

[node name="Light2D" type="Light2D" parent="." index="5"]
texture = ExtResource( 4 )
texture_scale = 0.25
energy = 0.35
shadow_enabled = true
shadow_gradient_length = 1.0
shadow_filter = 1
shadow_filter_smooth = 30.0
